<?xml version="1.0" encoding="UTF-8" standalone="no"?>
<!-- Created with Inkscape (http://www.inkscape.org/) -->

<svg
   xmlns:dc="http://purl.org/dc/elements/1.1/"
   xmlns:cc="http://creativecommons.org/ns#"
   xmlns:rdf="http://www.w3.org/1999/02/22-rdf-syntax-ns#"
   xmlns:svg="http://www.w3.org/2000/svg"
   xmlns="http://www.w3.org/2000/svg"
   xmlns:xlink="http://www.w3.org/1999/xlink"
   xmlns:sodipodi="http://sodipodi.sourceforge.net/DTD/sodipodi-0.dtd"
   xmlns:inkscape="http://www.inkscape.org/namespaces/inkscape"
   width="100"
   height="100"
   id="svg2"
   version="1.1"
   inkscape:version="0.48.5 r10040"
   sodipodi:docname="ic_launcher.svg">
  <defs
     id="defs4">
    <linearGradient
       id="linearGradient3762">
      <stop
         style="stop-color:#000000;stop-opacity:0.27450982;"
         offset="0"
         id="stop3764" />
      <stop
         id="stop3771"
         offset="0.5"
         style="stop-color:#000000;stop-opacity:0.27450982;" />
      <stop
         style="stop-color:#000000;stop-opacity:0;"
         offset="1"
         id="stop3766" />
    </linearGradient>
    <linearGradient
       inkscape:collect="always"
       xlink:href="#linearGradient3762"
       id="linearGradient3803"
       gradientUnits="userSpaceOnUse"
       x1="70"
       y1="1007.3622"
       x2="76.560555"
       y2="1007.3622"
       gradientTransform="matrix(1.25,0,0,0.75,-17.5,255.59055)" />
    <linearGradient
       inkscape:collect="always"
       xlink:href="#linearGradient3762"
       id="linearGradient3814"
       x1="45.636562"
       y1="992.38947"
       x2="45.636562"
       y2="985.65625"
       gradientUnits="userSpaceOnUse"
       gradientTransform="matrix(1.0833334,0,0,1,-4.1666666,9.99996)" />
    <linearGradient
       gradientTransform="matrix(1.0833333,0,0,1,8.3333333,-10)"
       inkscape:collect="always"
       xlink:href="#linearGradient3762"
       id="linearGradient3814-2"
       x1="45.636562"
       y1="992.38947"
       x2="45.636562"
       y2="985.77197"
       gradientUnits="userSpaceOnUse" />
    <linearGradient
       id="linearGradient3762-6">
      <stop
         style="stop-color:#000000;stop-opacity:0.26256984;"
         offset="0"
         id="stop3764-0" />
      <stop
         style="stop-color:#000000;stop-opacity:0;"
         offset="1"
         id="stop3766-4" />
    </linearGradient>
    <linearGradient
       inkscape:collect="always"
       xlink:href="#linearGradient3762-6"
       id="linearGradient3803-9"
       gradientUnits="userSpaceOnUse"
       x1="70"
       y1="1007.3622"
       x2="71.156654"
       y2="1007.3622" />
    <linearGradient
       id="linearGradient3883">
      <stop
         style="stop-color:#000000;stop-opacity:0.26256984;"
         offset="0"
         id="stop3885" />
      <stop
         style="stop-color:#000000;stop-opacity:0;"
         offset="1"
         id="stop3887" />
    </linearGradient>
    <linearGradient
       gradientTransform="matrix(1.25,0,0,0.75,-5,235.59055)"
       y2="1007.3622"
       x2="76.33683"
       y1="1007.3622"
       x1="70"
       gradientUnits="userSpaceOnUse"
       id="linearGradient3891"
       xlink:href="#linearGradient3762"
       inkscape:collect="always" />
  </defs>
  <sodipodi:namedview
     id="base"
     pagecolor="#000000"
     bordercolor="#666666"
     borderopacity="1.0"
     inkscape:pageopacity="0"
     inkscape:pageshadow="2"
     inkscape:zoom="4.7161662"
     inkscape:cx="39.636058"
     inkscape:cy="51.462487"
     inkscape:document-units="px"
     inkscape:current-layer="layer1"
     showgrid="false"
     showguides="true"
     inkscape:guide-bbox="true"
     inkscape:window-width="1399"
     inkscape:window-height="870"
     inkscape:window-x="71"
     inkscape:window-y="52"
     inkscape:window-maximized="0" />
  <metadata
     id="metadata7">
    <rdf:RDF>
      <cc:Work
         rdf:about="">
        <dc:format>image/svg+xml</dc:format>
        <dc:type
           rdf:resource="http://purl.org/dc/dcmitype/StillImage" />
        <dc:title />
      </cc:Work>
    </rdf:RDF>
  </metadata>
  <g
     inkscape:label="Ebene 1"
     inkscape:groupmode="layer"
     id="layer1"
     transform="translate(0,-952.3622)">
    <rect
       style="fill:#ff9f00;fill-opacity:1;stroke:none"
       id="rect2990"
       width="65"
       height="40"
       x="30"
       y="962.36218" />
    <rect
       style="fill:#0080ff;fill-opacity:1;stroke:none"
       id="rect2988"
       width="65"
       height="40"
       x="17.5"
       y="982.36218" />
    <rect
       style="fill:#e51000;fill-opacity:1;stroke:none"
       id="rect2986"
       width="65"
       height="40"
       x="5"
       y="1002.3622" />
    <path
       style="fill:url(#linearGradient3803);fill-opacity:1;stroke:none"
       d="m 70,1002.3622 12.5,-10 0,30 -12.5,0 z"
       id="rect3760"
       inkscape:connector-curvature="0"
       sodipodi:nodetypes="ccccc" />
    <path
       style="fill:url(#linearGradient3814);fill-opacity:1;stroke:none"
       d="m 17.5,992.3622 65,0 -12.5,10 -52.5,0 z"
       id="rect3805"
       inkscape:connector-curvature="0"
       sodipodi:nodetypes="ccccc" />
    <path
       style="fill:url(#linearGradient3891);fill-opacity:1;stroke:none"
       d="m 82.5,982.3622 12.5,-10 0,30 -12.5,0 z"
       id="rect3760-4"
       inkscape:connector-curvature="0"
       sodipodi:nodetypes="ccccc" />
    <path
       style="fill:url(#linearGradient3814-2);fill-opacity:1;stroke:none"
       d="m 30,972.36224 65,0 -12.5,9.99996 -52.5,0 z"
       id="rect3805-6"
       inkscape:connector-curvature="0"
       sodipodi:nodetypes="ccccc" />
  </g>
</svg>
